{
  "type": "service_account",
  "project_id": "wedding-amiss",
  "private_key_id": "ea70c9ab9a08cbe1e52975d8917099588ac17680",
  "private_key": "-----BEGIN PRIVATE KEY-----\nMIIEvQIBADANBgkqhkiG9w0BAQEFAASCBKcwggSjAgEAAoIBAQCdfsSx79Y2XF9l\n8ztX5uBwg31KSbGxtUx8XCBdKumej5kd76coSU9BSo+/tvHq+b6oNfDFkjf5QDsr\n4GOf0cZMobCs6u+cMsP79wzRKuFQPkUez2e8siS+R+BxJoJHdwib0N9diAWsIoqg\nvATrme4/rrPTdwR4MhQZAQQzI6DLEGfwlBGif6VcPzomGeWxaRC9RSehEbkKTraZ\nTXGVYf3CL92rDOvveu3xR6vamKMuwMIBpMIo2BwvRUGH0CRl0EptopdvkQugxhOK\n9FA05/VSwmOMwO/gCKG5o7gfvDnTV72EFRJbZi/7KQ6Fpb4/0ZTc4vsBwaxaiu4F\n4BAO0X4/AgMBAAECggEAEQsK1gaSM8fDOxEbNuPxHbvc7xESfZyU7lA54FsodNQt\nSaQJfr6QKQycia6Od1MXYrSTnY25KOvee10I6t6Uiu5kZBH4Y/rKYpXVeT0erMRQ\nTok7PJw6hazZiOUV7A3hjJsJ0OFLW9lRDxvJnIVH1vRc2WFjxm4E5r/JaI9Ocyrj\n3zaTYeybW3SRDcl5bcZhx7d2L8bmQsO3XQh8mvFqFZuO241XlRidO1+oz2W5C7TA\nFCBKLn5Mz3GuELxfUfZToT160Q7fSH/FgAXNg9VuV4BoW8MgioQQhgBBRWeUse1g\nW7KlqBtebzS8KQXvQL8OrV3E4oo7aZIMeNxSM5zH4QKBgQDJTqY4S/eEiRnRYhFO\ntptaxf5/TJt7nKfdK7tZQmBDb9ryzcp2jX56r08UKx4LEREllMs07IT0hmY8fCV9\nvoJbwbGH2a72cWx0f3WO7/FHbuOYdyKlY/DXv/A+Ev+pGC0KmNo4NuAsownBg1QM\nNYfXM9r6zQ1ZhxhgL85ZVKAZqwKBgQDISOXQXi9Ih31Su9tHvN4v5eeU3XJpjQ6W\nZ6f7nJJeF8uWbe3g3SRcltbMkMb1oLm52UWdc3azE1bzob3/OTimWU/HAtXMJbXQ\nJO6+nIAz2TsP84+yYoOud5RQseLAnQ8uw9kNcgXZYPW9bINa4J7zW3qQS0LDmaO3\ndZbfl26hvQKBgG23bwLJ7KqQqsCi6Xn0LrIHrZCmKSvzEs6Jkj+w3JSEt1mUbd+1\neJTXTYtZgLNZZvYLpcE/k6tOQRSAOVLSbWwjImY/b4ukAA9ylJkGD4P2XRdw/zIT\nSWXdl8vNQQhhQ9M9wdnXltDdP2j38ewBlPrmqVf+QGNmLRPnmli3tdanAoGAfYor\n+uK+cpDyvgQgW6QIBS/va8EusPiItz/77Fvk5vO1WfJH09Xpr9ugghMRku8O225U\nE3BHa9Hog8fTJwI//w0mU1D0oATXJMOxnmrMdTNpsQLzBFZ5wccUgUwvHJqV5LM/\n/wyEnBAJmJVG9JStLU8e0QlLrP1FwH4FdtsdrmUCgYEAxeOvGnVxitaKx5+qzObM\nKoxtxZV2Vql8T8ml2/uVZgjWNm0Lc3SpOI2NvI6Gpb7vRWngkE6VYsqUp5MlotUM\n0MCVo6BLE9k9MUPF9VMUjNMpsffgTEdw0179BVI1kaSCTrkqi9wgY1ursMPt8wWA\njcgd/pCZ9kPqOOWAPIGsq0w=\n-----END PRIVATE KEY-----\n",
  "client_email": "firebase-adminsdk-cns8t@wedding-amiss.iam.gserviceaccount.com",
  "client_id": "102251218612313044857",
  "auth_uri": "https://accounts.google.com/o/oauth2/auth",
  "token_uri": "https://oauth2.googleapis.com/token",
  "auth_provider_x509_cert_url": "https://www.googleapis.com/oauth2/v1/certs",
  "client_x509_cert_url": "https://www.googleapis.com/robot/v1/metadata/x509/firebase-adminsdk-cns8t%40wedding-amiss.iam.gserviceaccount.com"
}
